{
  "project_info": {
    "project_number": "628604488871",
    "firebase_url": "https://trombinoscopelite.firebaseio.com",
    "project_id": "trombinoscopelite",
    "storage_bucket": "trombinoscopelite.appspot.com"
  },
  "client": [
    {
      "client_info": {
        "mobilesdk_app_id": "1:628604488871:android:df8b994c2f1a30d8",
        "android_client_info": {
          "package_name": "com.afridev.trombinolite"
        }
      },
      "oauth_client": [
        {
          "client_id": "628604488871-87cp4c9snb99n7rtmcvv6quqveu2d2uh.apps.googleusercontent.com",
          "client_type": 3
        }
      ],
      "api_key": [
        {
          "current_key": "AIzaSyAxDxvh7adtQjVF7ty0ME3AGiondUgryec"
        }
      ],
      "services": {
        "appinvite_service": {
          "other_platform_oauth_client": [
            {
              "client_id": "628604488871-87cp4c9snb99n7rtmcvv6quqveu2d2uh.apps.googleusercontent.com",
              "client_type": 3
            }
          ]
        }
      }
    }
  ],
  "configuration_version": "1"
}