<svg xmlns="http://www.w3.org/2000/svg" viewBox="0 0 43.423 43.423">
  <defs>
    <style>
      .cls-1 {
        fill: #fff;
      }
    </style>
  </defs>
  <path id="Tracé_2146" data-name="Tracé 2146" class="cls-1" d="M43.423,41.567a1.3,1.3,0,0,1-.252.756l-.848.756a1.051,1.051,0,0,1-.756.344.846.846,0,0,1-.687-.344L29.926,32.126a.789.789,0,0,1-.344-.687v-.848a17.585,17.585,0,0,1-5.477,3.437,17.358,17.358,0,0,1-6.485,1.237,17.145,17.145,0,0,1-8.868-2.383A17.809,17.809,0,0,1,2.36,26.489,17.2,17.2,0,0,1,0,17.644,17.145,17.145,0,0,1,2.383,8.776,17.809,17.809,0,0,1,8.776,2.383,17.145,17.145,0,0,1,17.644,0a17.145,17.145,0,0,1,8.868,2.383,17.809,17.809,0,0,1,6.393,6.393,17.145,17.145,0,0,1,2.383,8.868,17.271,17.271,0,0,1-1.237,6.485,17.585,17.585,0,0,1-3.437,5.477h.848a1.051,1.051,0,0,1,.756.344L43.171,40.9A.8.8,0,0,1,43.423,41.567Zm-18.263-11a14.859,14.859,0,0,0,7.424-12.947,14.859,14.859,0,0,0-14.94-14.94A14.859,14.859,0,0,0,2.7,17.621a14.859,14.859,0,0,0,14.94,14.94A14.533,14.533,0,0,0,25.16,30.568Z" transform="translate(0)"/>
</svg>
