<svg xmlns="http://www.w3.org/2000/svg" viewBox="0 0 33.002 33.002">
  <defs>
    <style>
      .cls-1 {
        fill: #fff;
      }
    </style>
  </defs>
  <path id="ic_create_24px" class="cls-1" d="M3,29.125V36H9.875L30.15,15.725,23.275,8.85ZM35.466,10.408a1.826,1.826,0,0,0,0-2.585l-4.29-4.29a1.826,1.826,0,0,0-2.585,0L25.237,6.888l6.875,6.875,3.355-3.355Z" transform="translate(-3 -2.998)"/>
</svg>
